Psychology Statistics and Codes Notebook
…
contrast by using emm

comparison_results_2 <- results %>%
  filter(term != "(Intercept)") %>% 
  group_by(Channel) %>% 
  do({
    lm_model <- lm(estimate ~ term, data = .)
    emm <- emmeans(lm_model, ~ term) 
    contrast_results <- contrast(emm, method = "pairwise") 
    tidy(contrast_results)
  })

print(comparison_results_2)

## # A tibble: 576 × 9
## # Groups:   Channel [96]
##    Channel     term  contrast      null.value estimate std.error    df statistic
##    <chr>       <chr> <chr>              <dbl>    <dbl>     <dbl> <dbl>     <dbl>
##  1 S10_D11 hbo term  ValanceNegFa…          0   -1.32       1.20   208    -1.10 
##  2 S10_D11 hbo term  ValanceNegFa…          0    0.921      1.20   208     0.767
##  3 S10_D11 hbo term  ValanceNegFa…          0    0.412      1.20   208     0.343
##  4 S10_D11 hbo term  ValanceNeutF…          0    2.24       1.20   208     1.87 
##  5 S10_D11 hbo term  ValanceNeutF…          0    1.73       1.20   208     1.45 
##  6 S10_D11 hbo term  ValancePlace…          0   -0.509      1.20   208    -0.424
##  7 S10_D11 hbr term  ValanceNegFa…          0    1.89       1.21   208     1.56 
##  8 S10_D11 hbr term  ValanceNegFa…          0    0.168      1.21   208     0.138
##  9 S10_D11 hbr term  ValanceNegFa…          0    1.18       1.21   208     0.972
## 10 S10_D11 hbr term  ValanceNeutF…          0   -1.72       1.21   208    -1.42 
## # ℹ 566 more rows
## # ℹ 1 more variable: adj.p.value <dbl>
…
Cakar, S., & Gokalp Yavuz, F. (2023). Nested and robust modeling techniques for fNIRS data with demographics and experiment related factors in n-back task. Neuroscience Research, 186, 59-72. https://doi.org/10.1016/j.neures.2022.10.007

You can replace channel_data with channels for ROI. We can include other covariates, such as sex, to do further analysis for ROI to compare different conditions.

ROI_results_compare <- ROI_results %>%
  filter(str_detect(ROI, "Inferior_frontal_R")) %>% 
  filter(term %in% c("ValanceNeutFace", "ValancePlace")) %>% 
  filter(Chroma == "hbo") %>%
  group_by(ID) %>%
  filter(n() > 1) %>% 
  ungroup()

print(ROI_results_compare)

## # A tibble: 104 × 9
##    term            Chroma Weighted_Beta    se      t   dfe p         ROI      ID
##    <chr>           <chr>          <dbl> <dbl>  <dbl> <dbl> <chr>     <chr> <dbl>
##  1 ValanceNeutFace hbo           -5.54   2.69 -2.06   2779 0.03941   Infe…  1001
##  2 ValancePlace    hbo           -3.97   2.70 -1.47   2779 0.14196   Infe…  1001
##  3 ValanceNeutFace hbo            4.47   2.33  1.92   2799 0.05498   Infe…  1003
##  4 ValancePlace    hbo           -4.40   2.34 -1.88   2799 0.06051   Infe…  1003
##  5 ValanceNeutFace hbo            4.37   2.53  1.73   2781 0.0843003 Infe…  1006
##  6 ValancePlace    hbo           -3.17   2.54 -1.25   2781 0.2124539 Infe…  1006
##  7 ValanceNeutFace hbo            1.83   2.84  0.645  3350 0.51884   Infe…  1011
##  8 ValancePlace    hbo            5.03   2.86  1.76   3350 0.07840   Infe…  1011
##  9 ValanceNeutFace hbo           -0.886  2.90 -0.306  3221 0.759945… Infe…  1018
## 10 ValancePlace    hbo           -1.60   2.91 -0.551  3221 0.581978… Infe…  1018
## # ℹ 94 more rows
…
